%YAML 1.1
%TAG !u! tag:unity3d.com,2011:
--- !u!21 &2100000
Material:
  serializedVersion: 6
  m_ObjectHideFlags: 0
  m_CorrespondingSourceObject: {fileID: 0}
  m_PrefabInstance: {fileID: 0}
  m_PrefabAsset: {fileID: 0}
  m_Name: M_Hologram
  m_Shader: {fileID: 4800000, guid: 187e49f71d51a7d44b1dfcbcf1babad4, type: 3}
  m_ShaderKeywords: _SCROLLDIRECTION_ON
  m_LightmapFlags: 4
  m_EnableInstancingVariants: 0
  m_DoubleSidedGI: 0
  m_CustomRenderQueue: -1
  stringTagMap: {}
  disabledShaderPasses: []
  m_SavedProperties:
    serializedVersion: 3
    m_TexEnvs:
    - _MainTex:
        m_Texture: {fileID: 0}
        m_Scale: {x: 1, y: 1}
        m_Offset: {x: 0, y: 0}
    m_Floats:
    - _EdgeGlowStrength: 0.1
    - _FresnelStrength: 5.03
    - _GlowStrength: 0.54
    - _LineDensity: 0.89
    - _LineGlowStrength: 2
    - _LineThickness: -0.47
    - _ModelsHeight: 1
    - _ScreenSpaceLines: 0
    - _ScrollDirection: 1
    - _ScrollSpeed: 5
    m_Colors:
    - _Color: {r: 0.09803919, g: 1, b: 1, a: 1}
  m_BuildTextureStacks: []
