%YAML 1.1
%TAG !u! tag:unity3d.com,2011:
--- !u!21 &2100000
Material:
  serializedVersion: 6
  m_ObjectHideFlags: 0
  m_CorrespondingSourceObject: {fileID: 0}
  m_PrefabInstance: {fileID: 0}
  m_PrefabAsset: {fileID: 0}
  m_Name: M_Portal
  m_Shader: {fileID: 4800000, guid: f31e33bec5e378c408387f9ecfd2b3c0, type: 3}
  m_ShaderKeywords: _ROTATIONDIRECTION_ON
  m_LightmapFlags: 4
  m_EnableInstancingVariants: 0
  m_DoubleSidedGI: 0
  m_CustomRenderQueue: -1
  stringTagMap: {}
  disabledShaderPasses: []
  m_SavedProperties:
    serializedVersion: 3
    m_TexEnvs:
    - _DistortTex:
        m_Texture: {fileID: 2800000, guid: 12c6506837631cb488f81020bf7806c2, type: 3}
        m_Scale: {x: 1, y: 1}
        m_Offset: {x: 0, y: 0}
    - _MainTex:
        m_Texture: {fileID: 2800000, guid: 12c6506837631cb488f81020bf7806c2, type: 3}
        m_Scale: {x: 1, y: 1}
        m_Offset: {x: 0, y: 0}
    m_Floats:
    - _DistortionSpeed: 1
    - _DistortionStrength: 1
    - _RotationDirection: 1
    - _RotationSpeed: 1
    - _Test: 970.1
    - _Transparency: 1
    - _TransparencyMultiplier: 1
    m_Colors:
    - _Color: {r: 0, g: 1, b: 0.198514, a: 1}
  m_BuildTextureStacks: []
